0,1770,101
1,1771,82
2,1772,67
3,1773,35
4,1774,31
5,1775,7
6,1776,20
7,1777,93
8,1778,154
9,1779,126
10,1780,85
11,1781,68
12,1782,39
13,1783,23
14,1784,10
15,1785,24
16,1786,83
17,1787,132
18,1788,131
19,1789,118
20,1790,90
21,1791,67
22,1792,60
23,1793,47
24,1794,41
25,1795,21
26,1796,16
27,1797,6
28,1798,4
29,1799,7
30,1800,15
31,1801,34
32,1802,45
33,1803,43
34,1804,48
35,1805,42
36,1806,28
37,1807,10
38,1808,8
39,1809,3
40,1810,0
41,1811,1
42,1812,5
43,1813,12
44,1814,14
45,1815,35
46,1816,46
47,1817,41
48,1818,30
49,1819,24
50,1820,16
51,1821,7
52,1822,4
53,1823,2
54,1824,9
55,1825,17
56,1826,36
57,1827,50
58,1828,64
59,1829,67
60,1830,71
61,1831,48
62,1832,28
63,1833,9
64,1834,13
65,1835,57
66,1836,122
67,1837,138
68,1838,103
69,1839,86
70,1840,65
71,1841,37
72,1842,24
73,1843,11
74,1844,15
75,1845,40
76,1846,62
77,1847,99
78,1848,125
79,1849,96
80,1850,67
81,1851,65
82,1852,54
83,1853,39
84,1854,21
85,1855,7
86,1856,4
87,1857,23
88,1858,55
89,1859,94
90,1860,96
91,1861,77
92,1862,59
93,1863,44
94,1864,47
95,1865,31
96,1866,16
97,1867,7
98,1868,38
99,1869,74
